…
``` r
remotes::install_github("tjmahr/huttenlocher1991)
```

## Example

Here are the data all plotted.

``` r
library(huttenlocher1991)
library(tidyverse)

vocab_growth
#> # A tibble: 126 x 9
#>       id mom_speak   sex group log_mom   age vocab age_12 age_12_sq
#>    <dbl>     <dbl> <dbl> <dbl>   <dbl> <dbl> <dbl>  <dbl>     <dbl>
#>  1     1       694     0     0    6.54    12     1      0         0
#>  2     1       694     0     0    6.54    16    13      4        16
#>  3     1       694     0     0    6.54    18    34      6        36
#>  4     1       694     0     0    6.54    20    47      8        64
#>  5     1       694     0     0    6.54    22    90     10       100
#>  6     1       694     0     0    6.54    24   139     12       144
#>  7     1       694     0     0    6.54    26   205     14       196
#>  8     2      4485     0     0    8.41    12     1      0         0
#>  9     2      4485     0     0    8.41    14     6      2         4
#> 10     2      4485     0     0    8.41    16    46      4        16
#> # ... with 116 more rows
…
